{
	"info": {
		"_postman_id": "ce611c02-0ed0-436f-a154-33f4a2b8794b",
		"name": "Saque_CleanArchitecture",
		"schema": "https://schema.getpostman.com/json/collection/v2.1.0/collection.json"
	},
	"item": [
		{
			"name": "Register Saque",
			"request": {
				"auth": {
					"type": "basic",
					"basic": [
						{
							"key": "username",
							"value": "admin",
							"type": "string"
						},
						{
							"key": "password",
							"value": "123456",
							"type": "string"
						}
					]
				},
				"method": "POST",
				"header": [
					{
						"key": "x.correlation.id",
						"value": "f741683b-86b9-4187-b2ce-5ce600120cc9",
						"type": "text"
					},
					{
						"key": "userPermissions",
						"value": "SAQUE",
						"type": "text"
					},
					{
						"key": "clientDocument",
						"value": "426.234.430-41",
						"type": "text"
					}
				],
				"body": {
					"mode": "raw",
					"raw": "{\r\n    \"amount\": 250.0,\r\n    \"qrCode\": \"Banco24Horas/SaqueDigital/879ed45c-88ef-4c65-bfb2-b6d6f3dbd789/12345678/BRL{20;50;100}\"\r\n\r\n}",
					"options": {
						"raw": {
							"language": "json"
						}
					}
				},
				"url": {
					"raw": "http://localhost:8080/saque",
					"protocol": "http",
					"host": [
						"localhost"
					],
					"port": "8080",
					"path": [
						"saque"
					]
				}
			},
			"response": []
		},
		{
			"name": "Register Saque - Erro valor invalido p notas disponiveis",
			"request": {
				"auth": {
					"type": "basic",
					"basic": [
						{
							"key": "username",
							"value": "admin",
							"type": "string"
						},
						{
							"key": "password",
							"value": "123456",
							"type": "string"
						}
					]
				},
				"method": "POST",
				"header": [
					{
						"key": "x.correlation.id",
						"value": "f741683b-86b9-4187-b2ce-5ce600120cc9",
						"type": "text"
					},
					{
						"key": "userPermissions",
						"value": "SAQUE",
						"type": "text"
					},
					{
						"key": "clientDocument",
						"value": "426.234.430-41",
						"type": "text"
					}
				],
				"body": {
					"mode": "raw",
					"raw": "{\r\n    \"amount\": 25.0,\r\n    \"qrCode\": \"Banco24Horas/SaqueDigital/879ed45c-88ef-4c65-bfb2-b6d6f3dbd789/12345678/BRL{20}\"\r\n\r\n}",
					"options": {
						"raw": {
							"language": "json"
						}
					}
				},
				"url": {
					"raw": "http://localhost:8080/saque",
					"protocol": "http",
					"host": [
						"localhost"
					],
					"port": "8080",
					"path": [
						"saque"
					]
				}
			},
			"response": []
		},
		{
			"name": "Status",
			"request": {
				"auth": {
					"type": "basic",
					"basic": [
						{
							"key": "username",
							"value": "admin",
							"type": "string"
						},
						{
							"key": "password",
							"value": "123456",
							"type": "string"
						}
					]
				},
				"method": "GET",
				"header": [],
				"url": {
					"raw": "http://localhost:8080/status",
					"protocol": "http",
					"host": [
						"localhost"
					],
					"port": "8080",
					"path": [
						"status"
					]
				}
			},
			"response": []
		}
	]
}